tb/dump.vcd
$date
    Oct  6, 2023  19:08:08
$end
$version
    TOOL:	xmsim(64)	23.03-s004
$end
$timescale
    1 ns
$end

$scope module top $end
$var reg       1 !    clk $end
$var reg       1 "    rst_sync_n $end
$var reg       1 #    run_clock $end

$scope module if_fft_16_4_in $end
$var parameter 32 $    INPUT_WIDTH $end
$var wire      1 %    clk  $end
$var wire      1 &    rst_sync_n  $end
$var reg       1 '    i_valid $end
$var reg       8 (    i_data[0][0] [7:0] $end
$var reg       8 )    i_data[0][1] [7:0] $end
$var reg       8 *    i_data[1][0] [7:0] $end
$var reg       8 +    i_data[1][1] [7:0] $end
$var reg       8 ,    i_data[2][0] [7:0] $end
$var reg       8 -    i_data[2][1] [7:0] $end
$var reg       8 .    i_data[3][0] [7:0] $end
$var reg       8 /    i_data[3][1] [7:0] $end
$var reg       1 0    monstart $end
$var reg       1 1    drvstart $end
$var reg       1 2    got_packet $end
$upscope $end


$scope module if_fft_16_4_out $end
$var parameter 32 3    OUTPUT_WIDTH $end
$var wire      1 4    clk  $end
$var wire      1 5    rst_sync_n  $end
$var reg       1 6    o_valid $end
$var reg      12 7    o_data[0][0] [11:0] $end
$var reg      12 8    o_data[0][1] [11:0] $end
$var reg      12 9    o_data[1][0] [11:0] $end
$var reg      12 :    o_data[1][1] [11:0] $end
$var reg      12 ;    o_data[2][0] [11:0] $end
$var reg      12 <    o_data[2][1] [11:0] $end
$var reg      12 =    o_data[3][0] [11:0] $end
$var reg      12 >    o_data[3][1] [11:0] $end
$var reg      12 ?    o_data[4][0] [11:0] $end
$var reg      12 @    o_data[4][1] [11:0] $end
$var reg      12 A    o_data[5][0] [11:0] $end
$var reg      12 B    o_data[5][1] [11:0] $end
$var reg      12 C    o_data[6][0] [11:0] $end
$var reg      12 D    o_data[6][1] [11:0] $end
$var reg      12 E    o_data[7][0] [11:0] $end
$var reg      12 F    o_data[7][1] [11:0] $end
$var reg      12 G    o_data[8][0] [11:0] $end
$var reg      12 H    o_data[8][1] [11:0] $end
$var reg      12 I    o_data[9][0] [11:0] $end
$var reg      12 J    o_data[9][1] [11:0] $end
$var reg      12 K    o_data[10][0] [11:0] $end
$var reg      12 L    o_data[10][1] [11:0] $end
$var reg      12 M    o_data[11][0] [11:0] $end
$var reg      12 N    o_data[11][1] [11:0] $end
$var reg      12 O    o_data[12][0] [11:0] $end
$var reg      12 P    o_data[12][1] [11:0] $end
$var reg      12 Q    o_data[13][0] [11:0] $end
$var reg      12 R    o_data[13][1] [11:0] $end
$var reg      12 S    o_data[14][0] [11:0] $end
$var reg      12 T    o_data[14][1] [11:0] $end
$var reg      12 U    o_data[15][0] [11:0] $end
$var reg      12 V    o_data[15][1] [11:0] $end
$var reg       1 W    monstart $end
$var reg       1 X    drvstart $end
$var reg       1 Y    got_packet $end
$upscope $end

$upscope $end


$scope module cdns_uvm_pkg $end
$var parameter 32 Z    UVM_SET_VERBOSITY $end
$var parameter 32 [    UVM_GET_VERBOSITY $end
$var parameter 32 \    UVM_SET_ACTIONS $end
$var parameter 32 ]    UVM_GET_ACTIONS $end
$var parameter 32 ^    UVM_SET_STYLE $end
$var parameter 32 _    UVM_GET_STYLE $end
$var parameter 32 `    UVM_SET_SEVERITY $end
$var parameter 32 a    UVM_GET_SEVERITY $end
$var event     1 b    uvm_build_complete $end
$var reg       1 c    uvm_phase_is_start $end
$var reg       1 d    uvm_ml_mode $end
$var event     1 e    cdns_uvm_data_valid $end

$scope function uvm_cdns_report_server_setup $end
$var reg       1 f    uvm_cdns_report_server_setup $end
$var reg       1 g    enable $end
$upscope $end


$scope function cdns_tcl_uvm_message_hyperlinks $end
$var integer  32 h    status $end
$upscope $end

$upscope $end


$scope module cdns_assert2uvm_pkg $end
$var integer  32 i    verbosity $end
$upscope $end


$scope module uvm_pkg $end
$var parameter 32 j    UVM_HDL_MAX_WIDTH $end
$var parameter 328 k    uvm_mgc_copyright $end
$var parameter 336 l    uvm_cdn_copyright $end
$var parameter 224 m    uvm_snps_copyright $end
$var parameter 328 n    uvm_cy_copyright $end
$var parameter 256 o    uvm_nv_copyright $end
$var parameter 200 p    uvm_revision $end
$var reg       1 q    uvm_start_uvm_declarations $end
$var parameter 32 r    UVM_STREAMBITS $end
$var parameter 32 s    UVM_RADIX $end
$var parameter 32 t    UVM_MACRO_NUMFLAGS $end
$var parameter 32 u    UVM_DEFAULT $end
$var parameter 32 v    UVM_ALL_ON $end
$var parameter 32 w    UVM_FLAGS_ON $end
$var parameter 32 x    UVM_FLAGS_OFF $end
$var parameter 32 y    UVM_COPY $end
$var parameter 32 z    UVM_NOCOPY $end
$var parameter 32 {    UVM_COMPARE $end
$var parameter 32 |    UVM_NOCOMPARE $end
$var parameter 32 }    UVM_PRINT $end
$var parameter 32 ~    UVM_NOPRINT $end
$var parameter 32 !!   UVM_RECORD $end
$var parameter 32 "!   UVM_NORECORD $end
$var parameter 32 #!   UVM_PACK $end
$var parameter 32 $!   UVM_NOPACK $end
$var parameter 32 %!   UVM_PHYSICAL $end
$var parameter 32 &!   UVM_ABSTRACT $end
$var parameter 32 '!   UVM_READONLY $end
$var parameter 32 (!   UVM_NODEFPRINT $end
$var parameter 32 )!   UVM_MACRO_EXTRAS $end
$var parameter 32 *!   UVM_FLAGS $end
$var parameter 32 +!   UVM_UNPACK $end
$var parameter 32 ,!   UVM_CHECK_FIELDS $end
$var parameter 32 -!   UVM_END_DATA_EXTRA $end
$var parameter 32 .!   UVM_START_FUNCS $end
$var parameter 32 /!   UVM_SET $end
$var parameter 32 0!   UVM_SETINT $end
$var parameter 32 1!   UVM_SETOBJ $end
$var parameter 32 2!   UVM_SETSTR $end
$var parameter 32 3!   UVM_END_FUNCS $end
$var integer  32 4!   uvm_global_random_seed $end
$var parameter 32 5!   UVM_STR_CRC_POLYNOMIAL $end
$var parameter 32 6!   UVM_STDOUT $end
$var parameter 32 7!   UVM_LINE_WIDTH $end
$var parameter 32 8!   UVM_NUM_LINES $end
$var parameter 32 9!   UVM_SMALL_STRING $end
$var parameter 32 :!   UVM_LARGE_STRING $end
$var integer  32 ;!   UVM_UNBOUNDED_CONNECTIONS $end

$scope function uvm_hdl_check_path $end
$var integer  32 <!   uvm_hdl_check_path $end
$upscope $end


$scope function uvm_hdl_deposit $end
$var integer  32 =!   uvm_hdl_deposit $end
$var reg      1024 >!   value [1023:0] $end
$upscope $end


$scope function uvm_hdl_force $end
$var integer  32 ?!   uvm_hdl_force $end
$var reg      1024 @!   value [1023:0] $end
$upscope $end


$scope task uvm_hdl_force_time $end
$var reg      1024 A!   value [1023:0] $end
$var time     64 B!   force_time $end
$upscope $end


$scope function uvm_hdl_release_and_read $end
$var integer  32 C!   uvm_hdl_release_and_read $end
$var reg      1024 D!   value [1023:0] $end
$upscope $end


$scope function uvm_hdl_release $end
$var integer  32 E!   uvm_hdl_release $end
$upscope $end


$scope function uvm_hdl_read $end
$var integer  32 F!   uvm_hdl_read $end
$var reg      1024 G!   value [1023:0] $end
$upscope $end


$scope function uvm_dpi_get_next_arg_c $end
$var integer  32 H!   init $end
$upscope $end


$scope function uvm_dpi_get_next_arg $end
$var integer  32 I!   init $end
$upscope $end


$scope function uvm_dpi_regexec $end
$var integer  32 J!   uvm_dpi_regexec $end
$upscope $end


$scope function uvm_re_match $end
$var integer  32 K!   uvm_re_match $end
$upscope $end


$scope function uvm_regcomp $end
$var reg      64 L!   uvm_regcomp [63:0] $end
$upscope $end


$scope function uvm_regexec $end
$var integer  32 M!   uvm_regexec $end
$var reg      64 N!   re [63:0] $end
$var integer  32 O!   nmatch $end
$var reg      64 P!   ptr [63:0] $end
$var integer  32 Q!   eflags $end
$upscope $end


$scope task uvm_regfree $end
$var reg      64 R!   re [63:0] $end
$upscope $end


$scope function uvm_radix_to_string $end
$var reg      32 S!   radix [31:0] $end
$upscope $end


$scope function uvm_instance_scope $end
$var reg       8 T!   c [7:0] $end
$var integer  32 U!   pos $end
$upscope $end


$scope function uvm_oneway_hash $end
$var integer  32 V!   uvm_oneway_hash $end
$var integer  32 W!   seed $end
$var reg       1 X!   msb $end
$var reg       8 Y!   current_byte [7:0] $end
$var reg      32 Z!   crc1 [31:0] $end
$upscope $end


$scope function uvm_create_random_seed $end
$var integer  32 [!   uvm_create_random_seed $end
$upscope $end


$scope function uvm_leaf_scope $end
$var reg       8 \!   scope_separator [7:0] $end
$var reg       8 ]!   bracket_match [7:0] $end
$var integer  32 ^!   pos $end
$var integer  32 _!   bmatches $end
$upscope $end


$scope function uvm_bitstream_to_string $end
$var reg      4096 `!   value [4095:0] $end
$var integer  32 a!   size $end
$var reg      32 b!   radix [31:0] $end

$scope begin unmblk1 $end
$var reg      4096 c!   _t [4095:0] $end
$upscope $end

$upscope $end


$scope function uvm_integral_to_string $end
$var reg      64 d!   value [63:0] $end
$var integer  32 e!   size $end
$var reg      32 f!   radix [31:0] $end

$scope begin unmblk1 $end
$var reg      64 g!   _t [63:0] $end
$upscope $end

$upscope $end


$scope function uvm_vector_to_string $end
$var reg      4096 h!   value [4095:0] $end
$var integer  32 i!   size $end
$var reg      32 j!   radix [31:0] $end
$upscope $end


$scope function uvm_get_array_index_int $end
$var integer  32 k!   uvm_get_array_index_int $end
$var reg       1 l!   is_wildcard $end
$var integer  32 m!   i $end
$upscope $end


$scope function uvm_get_array_index_string $end
$var reg       1 n!   is_wildcard $end
$var integer  32 o!   i $end
$upscope $end


$scope function uvm_is_array $end
$var reg       1 p!   uvm_is_array $end
$upscope $end


$scope task set_global_timeout $end
$var time     64 q!   timeout $end
$var reg       1 r!   overridable $end
$upscope $end


$scope task set_global_stop_timeout $end
$var time     64 s!   timeout $end
$upscope $end


$scope function uvm_report_enabled $end
$var integer  32 t!   uvm_report_enabled $end
$var integer  32 u!   verbosity $end
$var reg       2 v!   severity [1:0] $end
$upscope $end


$scope task uvm_report $end
$var reg       2 w!   severity [1:0] $end
$var integer  32 x!   verbosity $end
$var integer  32 y!   line $end
$var reg       1 z!   report_enabled_checked $end
$upscope $end


$scope task m__uvm_report_dpi $end
$var integer  32 {!   severity $end
$var integer  32 |!   verbosity $end
$var integer  32 }!   line $end
$upscope $end


$scope task uvm_report_info $end
$var integer  32 ~!   verbosity $end
$var integer  32 !"   line $end
$var reg       1 ""   report_enabled_checked $end
$upscope $end


$scope task uvm_report_warning $end
$var integer  32 #"   verbosity $end
$var integer  32 $"   line $end
$var reg       1 %"   report_enabled_checked $end
$upscope $end


$scope task uvm_report_error $end
$var integer  32 &"   verbosity $end
$var integer  32 '"   line $end
$var reg       1 ("   report_enabled_checked $end
$upscope $end


$scope task uvm_report_fatal $end
$var integer  32 )"   verbosity $end
$var integer  32 *"   line $end
$var reg       1 +"   report_enabled_checked $end
$upscope $end


$scope function uvm_string_to_severity $end
$var reg       1 ,"   uvm_string_to_severity $end
$var reg       2 -"   sev [1:0] $end
$upscope $end


$scope task set_config_int $end
$var reg      4096 ."   value [4095:0] $end
$upscope $end


$scope task set_config_object $end
$var reg       1 /"   clone $end
$upscope $end


$scope function uvm_is_match $end
$var reg       1 0"   uvm_is_match $end
$upscope $end


$scope task uvm_wait_for_nba_region $end
$var integer  32 1"   nba $end
$var integer  32 2"   next_nba $end
$upscope $end

$upscope $end

$enddefinitions $end
$dumpvars
b11100000111111111 :!
b1110111111 9!
b1111000 8!
b1111000 7!
b1 6!
b100110000010001110110110110 5!
b100000000000001000 3!
b100000000000001000 2!
b100000000000000111 1!
b100000000000000110 0!
b100000000000000110 /!
b100000000000000101 .!
b100000000000000100 -!
b100000000000000011 ,!
b100000000000000010 +!
b100000000000000001 *!
b100000000000000000 )!
b10000000000000000 (!
b1000000000000000 '!
b100000000000000 &!
b10000000000000 %!
b1000000000 $!
b100000000 #!
b10000000 "!
b1000000 !!
b100000 ~
b10000 }
b1000 |
b100 {
b10 z
b1 y
b0 x
b101010101 w
b101010101 v
b10101010101 u
b10001 t
b1111000000000000000000000000 s
b1000000000000 r
b101001000000000000000000000000000001000000000000000000000000000000001100000000000000000000000000101000000000000000000000000000000001000000000000000000000000000000001100000000000000000000000000100000 p
b1100000000000000000000000000101000000000000000000000000000000001000000000000000000000000000000001100000000000000000000000000100000000000000000000000000000000001000000000000000000000000000000001100000000000000000000000000011111 o
b1100000000000000000000000000101000000000000000000000000000000001000000000000000000000000000000001100000000000000000000000000100000000000000000000000000000000001000000000000000000000000000000001100000000000000000000000000011111000000000000000000000000000001000000000000000000000000000000001100000000000000000000000000011110 n
b11111000000000000000000000000000001000000000000000000000000000000001100000000000000000000000000011110000000000000000000000000000001000000000000000000000000000000001100000000000000000000000000011101 m
b1100000000000000000000000000011111000000000000000000000000000001000000000000000000000000000000001100000000000000000000000000011110000000000000000000000000000001000000000000000000000000000000001100000000000000000000000000011101000000000000000000000000000001000000000000000000000000000000001100000000000000000000000000011100 l
b1100000000000000000000000000011110000000000000000000000000000001000000000000000000000000000000001100000000000000000000000000011101000000000000000000000000000001000000000000000000000000000000001100000000000000000000000000011100000000000000000000000000000001000000000000000000000000000000001100000000000000000000000000011011 k
b10000000000 j
b111 a
b110 `
b101 _
b100 ^
b11 ]
b10 \
b1 [
b0 Z
b1100 3
b1000 $
0!
1"
0#
0%
1&
x'
bx (
bx )
bx *
bx +
bx ,
bx -
bx .
bx /
00
01
02
04
15
x6
bx 7
bx 8
bx 9
bx :
bx ;
bx <
bx =
bx >
bx ?
bx @
bx A
bx B
bx C
bx D
bx E
bx F
bx G
bx H
bx I
bx J
bx K
bx L
bx M
bx N
bx O
bx P
bx Q
bx R
bx S
bx T
bx U
bx V
0W
0X
0Y
xb
1c
0d
xe
xf
0g
b0 h
b0 i
1q
b101011011100011001010010100011 4!
b11111111111111111111111111111111 ;!
b0 <!
b0 =!
bx >!
b0 ?!
bx @!
bx A!
bx B!
b0 C!
bx D!
b0 E!
b0 F!
bx G!
b0 H!
b0 I!
b0 J!
b0 K!
b0 L!
b0 M!
b0 N!
b0 O!
b0 P!
b0 Q!
b0 R!
b0 S!
b111010 T!
b1000 U!
b111001011000001101100010110011 V!
b101011011100011001010010100011 W!
0X!
b1110001 Y!
b11101111101110110001000011110010 Z!
b11100011101010101001000000010000 [!
b101110 \!
b0 ]!
b11111 ^!
b11111111111111111111111111111111 _!
bx `!
b0 a!
b0 b!
bx c!
b1 d!
b100000 e!
b10000000000000000000000000 f!
bx g!
bx h!
b0 i!
b0 j!
b0 k!
0l!
b0 m!
0n!
b0 o!
0p!
bx q!
0r!
bx s!
b0 t!
b111110100 u!
b0 v!
b0 w!
b0 x!
b0 y!
0z!
b0 {!
b0 |!
b0 }!
b0 ~!
b0 !"
0""
b0 #"
b0 $"
0%"
b0 &"
b0 '"
0("
b0 )"
b0 *"
0+"
0,"
b0 -"
bx ."
0/"
10"
b100011 1"
b100011 2"
$end
#2
1!
14
1%
#3
0"
05
0&
#4
0!
04
0%
#6
1!
14
1%
#8
1"
0!
04
0%
15
1&
b100100 2"
b100101 2"
b100101 1"
#10
1!
14
1%
#12
0!
04
0%
1X
b100101100 u!
1Y
11
12
#14
1!
14
1%
0Y
1W
02
10
#16
0!
04
0%
0X
b100110 2"
01
b100111 2"
b1100000000000011110011000010100 [!
b1100000000000011110011000010111 [!
b111001011000001101100010110110 [!
b111001011000001101100010111001 [!
b100111 1"
#18
1!
14
1%
0W
00
#20
0!
04
0%
1X
1Y
11
12
#22
1!
14
1%
0Y
1W
02
10
#24
0!
04
0%
0X
b101000 2"
01
b101001 2"
b1100000000000011110011000011011 [!
b1100000000000011110011000100000 [!
b111001011000001101100010111101 [!
b111001011000001101100011000010 [!
b101001 1"
#26
1!
14
1%
0W
00
#28
0!
04
0%
1X
1Y
11
12
#30
1!
14
1%
0Y
1W
02
10
#32
0!
04
0%
0X
b101010 2"
01
b101011 2"
b101011 1"
#34
1!
14
1%
0W
00
